{
  "project_info": {
    "project_number": "325780708515",
    "project_id": "flutter-chat-app-c685d",
    "storage_bucket": "flutter-chat-app-c685d.appspot.com"
  },
  "client": [
    {
      "client_info": {
        "mobilesdk_app_id": "1:325780708515:android:9e6ef0e6290c3ceb11b316",
        "android_client_info": {
          "package_name": "com.example.fre_chat_app"
        }
      },
      "oauth_client": [
        {
          "client_id": "325780708515-2oe1gsvtvjcpe76gvoerrmird31au2bf.apps.googleusercontent.com",
          "client_type": 1,
          "android_info": {
            "package_name": "com.example.fre_chat_app",
            "certificate_hash": "4a99dd5c3fd75519d319617f2cd8ecefd7adb7ac"
          }
        },
        {
          "client_id": "325780708515-knj91h4kp3214mu3imrtmbu6ua7a52ej.apps.googleusercontent.com",
          "client_type": 3
        }
      ],
      "api_key": [
        {
          "current_key": "AIzaSyD7jS6mwWvD_mcaM_OtWzVBz93vB4bmKtU"
        }
      ],
      "services": {
        "appinvite_service": {
          "other_platform_oauth_client": [
            {
              "client_id": "325780708515-knj91h4kp3214mu3imrtmbu6ua7a52ej.apps.googleusercontent.com",
              "client_type": 3
            },
            {
              "client_id": "325780708515-lam1b16vnh3lfbjl57f8c3apivpdt6ib.apps.googleusercontent.com",
              "client_type": 2,
              "ios_info": {
                "bundle_id": "com.example.freChatApp"
              }
            }
          ]
        }
      }
    }
  ],
  "configuration_version": "1"
}